guiao11_12/mips_multi_cycle/simulation/qsim/mips_multi_cycle.msim.vcd
$comment
	File created using the following command:
		vcd file mips_multi_cycle.msim.vcd -direction
$end
$date
	Fri Dec 01 17:45:45 2017
$end
$version
	ModelSim Version 10.4b
$end
$timescale
	1ps
$end

$scope module ControlUnit_vlg_vec_tst $end
$var reg 1 ! clk $end
$var reg 6 " OpCode [5:0] $end
$var reg 1 # reset $end
$var wire 1 $ ALUop [1] $end
$var wire 1 % ALUop [0] $end
$var wire 1 & ALUSelA $end
$var wire 1 ' ALUSelB [1] $end
$var wire 1 ( ALUSelB [0] $end
$var wire 1 ) CState [3] $end
$var wire 1 * CState [2] $end
$var wire 1 + CState [1] $end
$var wire 1 , CState [0] $end
$var wire 1 - IorD $end
$var wire 1 . IRWrite $end
$var wire 1 / MemRead $end
$var wire 1 0 MemToReg $end
$var wire 1 1 MemWrite $end
$var wire 1 2 PCSource [1] $end
$var wire 1 3 PCSource [0] $end
$var wire 1 4 PCWrite $end
$var wire 1 5 PCWriteCond $end
$var wire 1 6 RegDest $end
$var wire 1 7 RegWrite $end

$scope module i1 $end
$var wire 1 8 gnd $end
$var wire 1 9 vcc $end
$var wire 1 : unknown $end
$var tri1 1 ; devclrn $end
$var tri1 1 < devpor $end
$var tri1 1 = devoe $end
$var wire 1 > PCWrite~output_o $end
$var wire 1 ? IRWrite~output_o $end
$var wire 1 @ IorD~output_o $end
$var wire 1 A PCSource[0]~output_o $end
$var wire 1 B PCSource[1]~output_o $end
$var wire 1 C RegDest~output_o $end
$var wire 1 D PCWriteCond~output_o $end
$var wire 1 E MemRead~output_o $end
$var wire 1 F MemWrite~output_o $end
$var wire 1 G MemToReg~output_o $end
$var wire 1 H ALUSelA~output_o $end
$var wire 1 I ALUSelB[0]~output_o $end
$var wire 1 J ALUSelB[1]~output_o $end
$var wire 1 K RegWrite~output_o $end
$var wire 1 L ALUop[0]~output_o $end
$var wire 1 M ALUop[1]~output_o $end
$var wire 1 N CState[0]~output_o $end
$var wire 1 O CState[1]~output_o $end
$var wire 1 P CState[2]~output_o $end
$var wire 1 Q CState[3]~output_o $end
$var wire 1 R clk~input_o $end
$var wire 1 S reset~input_o $end
$var wire 1 T OpCode[2]~input_o $end
$var wire 1 U OpCode[0]~input_o $end
$var wire 1 V OpCode[4]~input_o $end
$var wire 1 W OpCode[5]~input_o $end
$var wire 1 X OpCode[1]~input_o $end
$var wire 1 Y OpCode[3]~input_o $end
$var wire 1 Z Equal0~0_combout $end
$var wire 1 [ CS~51_combout $end
$var wire 1 \ CS~38_combout $end
$var wire 1 ] Equal5~2_combout $end
$var wire 1 ^ CS~48_combout $end
$var wire 1 _ CS~49_combout $end
$var wire 1 ` CS.E6~q $end
$var wire 1 a CS~44_combout $end
$var wire 1 b CS.E7~q $end
$var wire 1 c Equal1~0_combout $end
$var wire 1 d Equal1~1_combout $end
$var wire 1 e NS~15_combout $end
$var wire 1 f Equal3~0_combout $end
$var wire 1 g CS~47_combout $end
$var wire 1 h CS.E2~q $end
$var wire 1 i CS~40_combout $end
$var wire 1 j CS~42_combout $end
$var wire 1 k CS.E5~q $end
$var wire 1 l CS~41_combout $end
$var wire 1 m CS.E3~q $end
$var wire 1 n CS~45_combout $end
$var wire 1 o CS.E4~q $end
$var wire 1 p WideOr10~0_combout $end
$var wire 1 q Equal5~3_combout $end
$var wire 1 r CS~43_combout $end
$var wire 1 s CS.E10~q $end
$var wire 1 t Equal4~0_combout $end
$var wire 1 u CS~46_combout $end
$var wire 1 v CS.E8~q $end
$var wire 1 w CS~52_combout $end
$var wire 1 x CS.E9~q $end
$var wire 1 y WideOr8~0_combout $end
$var wire 1 z CS~39_combout $end
$var wire 1 { CS.E0~q $end
$var wire 1 | NS~14_combout $end
$var wire 1 } NS~16_combout $end
$var wire 1 ~ CS~50_combout $end
$var wire 1 !! CS.E1~q $end
$var wire 1 "! CS~28_combout $end
$var wire 1 #! CS~25_combout $end
$var wire 1 $! CS~53_combout $end
$var wire 1 %! CS.E11~q $end
$var wire 1 &! PCWrite~0_combout $end
$var wire 1 '! IorD~0_combout $end
$var wire 1 (! MemRead~0_combout $end
$var wire 1 )! WideOr11~0_combout $end
$var wire 1 *! ALUSelB~0_combout $end
$var wire 1 +! WideOr0~0_combout $end
$var wire 1 ,! WideOr13~0_combout $end
$var wire 1 -! ALUop~0_combout $end
$var wire 1 .! ALUop~1_combout $end
$var wire 1 /! WideOr11~combout $end
$var wire 1 0! WideOr10~combout $end
$var wire 1 1! WideOr9~combout $end
$var wire 1 2! WideOr8~combout $end
$upscope $end
$upscope $end
$enddefinitions $end
#0
$dumpvars
0!
b100011 "
0#
0%
0$
0&
1(
0'
0,
0+
0*
0)
0-
1.
1/
00
01
03
02
14
05
06
07
08
19
x:
1;
1<
1=
1>
1?
0@
0A
0B
0C
0D
1E
0F
0G
0H
1I
0J
0K
0L
0M
0N
0O
0P
0Q
0R
0S
0T
1U
0V
1W
1X
0Y
0Z
1[
0\
0]
0^
0_
0`
0a
0b
1c
1d
0e
0f
0g
0h
0i
0j
0k
0l
0m
0n
0o
1p
0q
0r
0s
0t
0u
0v
0w
0x
1y
1z
0{
0|
1}
1~
0!!
0"!
0#!
0$!
0%!
1&!
0'!
1(!
1)!
0*!
0+!
0,!
1-!
0.!
1/!
10!
01!
02!
$end
#25000
1!
1R
1!!
1{
0?
1"!
1^
1\
0/!
0.
1+!
0(!
0&!
0~
0>
0E
1J
1N
1#!
1,
1'
0/
04
1g
#50000
0!
0R
#75000
1!
1R
0!!
1h
1*!
0"!
0^
0\
0)!
1i
1H
0I
00!
0#!
1/!
0(
1&
0g
1l
0N
1O
1+
0,
#100000
0!
0R
#125000
1!
1R
1m
0h
1)!
0i
1(!
1'!
1n
0+!
0J
1@
1E
0H
0/!
0&
1/
1-
0'
0l
1N
1,
#150000
0!
0R
#175000
1!
1R
0m
1o
1G
1/!
0p
10
0(!
0'!
0n
11!
1,!
1K
1P
0@
0E
0N
10!
0,
0/
0-
1*
17
0z
0O
0+
#200000
0!
0R
#225000
1!
1R
0{
0o
0G
1?
0*!
1p
1.
00
1(!
1&!
1~
01!
0,!
0K
0P
1>
1E
1I
1(
1/
14
0*
07
1z
#250000
0!
0R
#275000
1!
1R
1!!
1{
0?
1"!
1^
1\
0/!
0.
1+!
0(!
0&!
0~
0>
0E
1J
1N
1#!
1,
1'
0/
04
1g
#300000
0!
0R
#320000
1#
1S
0"!
0^
0\
0z
0#!
0g
#325000
1!
1R
0!!
0{
1?
1/!
1.
0+!
1(!
1&!
1>
1E
0J
0N
0,
0'
1/
14
#340000
b101011 "
0#
1Y
0S
1~
1z
#350000
0!
0R
#375000
1!
1R
1!!
1{
0?
1"!
1^
1\
0/!
0.
1+!
0(!
0&!
0~
0>
0E
1J
1N
1,
1'
0/
04
1g
#400000
0!
0R
#425000
1!
1R
0!!
1h
1*!
0"!
0^
0\
0)!
1i
1H
0I
00!
1/!
0(
1&
0g
1j
0N
1O
1+
0,
#450000
0!
0R
#475000
1!
1R
0h
1k
1F
1)!
0i
0p
11
0+!
11!
1'!
1@
1P
0J
0H
0/!
10!
0&
0'
1*
1-
0j
0z
0O
1N
1,
0+
#500000
0!
0R
#525000
1!
1R
0{
0k
0F
1?
1/!
0*!
1p
1.
01
1(!
1&!
1~
01!
0'!
0@
0P
1>
1E
1I
0N
0,
1(
1/
14
0*
0-
1z
#550000
0!
0R
#575000
1!
1R
1!!
1{
0?
1"!
1^
1\
0/!
0.
1+!
0(!
0&!
0~
0>
0E
1J
1N
1,
1'
0/
04
1g
#600000
0!
0R
#610000
1#
1S
0"!
0^
0\
0z
0g
#625000
1!
1R
0!!
0{
1?
1/!
1.
0+!
1(!
1&!
1>
1E
0J
0N
0,
0'
1/
14
#630000
b1011 "
b1001 "
b1000 "
0U
0X
0W
0c
1]
0}
1e
0d
1f
1}
#640000
0#
0S
1~
1z
#650000
0!
0R
#675000
1!
1R
1!!
1{
0?
1"!
1^
1\
0/!
0.
1+!
0(!
0&!
0~
0>
0E
1J
1N
1,
1'
0/
04
1g
#700000
0!
0R
#725000
1!
1R
0!!
1h
1*!
0"!
0^
0\
0)!
1i
1w
1H
0I
00!
1/!
0(
1&
0g
0N
1O
1+
0,
#750000
0!
0R
#775000
1!
1R
1x
0h
10!
0y
1)!
0i
12!
1,!
0+!
0w
0J
1K
1Q
0H
0O
0/!
0+
0&
1)
17
0'
0z
1N
1,
#800000
0!
0R
#820000
1#
1S
#825000
1!
1R
0{
0x
1?
1/!
0*!
00!
1y
1.
1(!
1&!
02!
0,!
0K
0Q
1>
1E
1O
1I
0N
10!
0,
1(
1+
1/
14
0)
07
0O
0+
#830000
b1010 "
0#
1X
0S
1|
1t
0f
1~
1z
#850000
0!
0R
#875000
1!
1R
1!!
1{
0?
1"!
1^
1\
0/!
0.
1+!
0(!
0&!
0~
0>
0E
1J
1N
1,
1'
0/
04
1u
#900000
0!
0R
#925000
1!
1R
0!!
1v
1*!
0"!
0^
0\
0-!
0)!
12!
1.!
1w
1M
1Q
1H
1L
0I
1/!
0(
1%
1&
1)
1$
0u
0N
0,
#950000
0!
0R
#975000
1!
1R
1x
0v
0y
1-!
1)!
1,!
0.!
0+!
0w
0J
0M
1K
0H
0L
0/!
0%
0&
17
0$
0'
0z
1N
1,
